…
```r
data(package="vroomen07")

#> Data sets in package ‘vroomen07’:
#> 
#> adapt
#> pretest
#> pretest_mid
```

For instance:

``` r
vroomen07::pretest
#> # A tibble: 3,224 × 10
#>    trial     movie   aud response  time               source
#>    <int>     <chr> <int>   <fctr> <dbl>                <chr>
#> 1      1 bd01n.wav     1        b 1.735 Data 13/Pre1pp10.DAT
#> 2      2 bd09n.wav     9        d 0.812 Data 13/Pre1pp10.DAT
#> 3      3 bd01n.wav     1        b 0.844 Data 13/Pre1pp10.DAT
#> 4      4 bd09n.wav     9        d 0.781 Data 13/Pre1pp10.DAT
#> 5      5 bd01n.wav     1        b 0.781 Data 13/Pre1pp10.DAT
#> 6      6 bd09n.wav     9        d 0.812 Data 13/Pre1pp10.DAT
#> 7      7 bd06n.wav     6        d 0.813 Data 13/Pre1pp10.DAT
#> 8      8 bd03n.wav     3        b 0.797 Data 13/Pre1pp10.DAT
#> 9      9 bd02n.wav     2        b 0.859 Data 13/Pre1pp10.DAT
#> 10    10 bd03n.wav     3        b 0.891 Data 13/Pre1pp10.DAT
#> # ... with 3,214 more rows, and 4 more variables: session_time <dttm>,
#> #   subject <dbl>, response_raw <chr>, session <int>
```
…
